name,map_website,map_phone,map_lat,map_long
Riaan King Optometrist,no website,+27 21 791 3385,-34.04128,18.351348
Asmal Optometrist,http://www.bpomas.co.bw/asmal-optometrist,0366374572,-28.55747,29.780123
Susan Walton Optometrist,https://www.susanwaltonoptometrist.com.au/,+61 2 4926 4799,-32.928345,151.770528
J Eybers Optometrist,http://www.eybersoptom.co.za,013 752 6840 / 013 752 7125,-25.472671,30.978139
Envision Optical,http://envisionoptical.com.au/,+61755249659,-28.206679,153.539035
"McBride, OD Tullahome Vision Associates",http://www.tullavision.com/,+1 931-455-0654,35.381201,-86.235441
Visual Eyes,http://www.visualeyes.co.za/,+27 11 849 7417,-26.156405,28.294462
"Aller, Thomas OD",http://draller.com/,+1 650-871-1816,37.626733,-122.416025
Eyecare Network,http://eyecarenetwork.com.au/,+61 2 9728 7288,-33.883096,150.925443
Spec Savers Longbeach Mall,www.specsavers.co.za,+27 21 785 2181,-34.123738,18.388426
Pedlar Optometrists,http://www.pedlareyecare.com/,+27 21 671 5109,-33.976173,18.458914
Van den Heever - Roetz Inc,no website,+27 12 333 6666,-25.734923,28.24809
Visique Milford Optometrists ,http://www.milfordoptometrists.co.nz/,+64 9-489 4797,-36.772208,174.781173
Eyeland Castle Walk,http://eyeland.co.za/castle-walk.html,+27(0)12 347 – 7642/8801,-25.81729,28.268798
Melanie Peyper Optometrist,http://www.ireneoptom.co.za/,+27 12 662 4030,-25.843413,28.244098
Shannon Drive Optometrist,no website,031 262 7072,-29.796294,30.936509
Athlone Optical Centre,no website,+27 21 697 1300,-33.961371,18.502444
Andre van der Merwe Oogkundiges Ingelyf,no website,+27 53 831 3077,-28.740276,24.764866
Bob Heavyside,https://www.medmont.com.au/,+61 3 9259 0800,-37.824571,145.180191
Thys van Zyl Optometrist,no website,+27 41 373 2908,-33.954201,25.585037
Muir Optometrists,www.muiroptometrists.co.za,+27 44 382 2174,-34.035028,23.044512
Saks Taylor & Brauer Optometrists,http://www.stbopt.co.za/,+27 12 460 5360,-25.771279,28.234024
Visique Rototuna Optometrists,http://www.rototunaoptometrists.co.nz/,+64 7-852 5625,-37.729662,175.274963
Gilliland en Genote Ing,no website,021 8642120,-33.640449,19.002414
G-Side Optometrists,http://www.gside-optometrists.co.za/, +27 11 486 2927,-26.148036,28.010585
Innovatus Technology,innovativeeyecare.com.au,0882319341,-34.927221,138.612306
Henrichsen Bingham Optometrists,no website,+264 64 404 587,-22.678348,14.525156
Visique on High Street Optometrists,https://visiqueoptometrist.co.nz/, +64 4-586 3332,-41.209426,174.902402
Eyefix Optometrists,http://www.eyefix.com.au/,+61 7 3393 9292,-27.474371,153.15595
Vision Optics,https://andrew-angeli-vision-optics.business.site/,+61 7 3844 1556,-27.480951,153.012549
Namibia Eye Laser Centre,http://www.eyedoc.com.na/,+264 61 372 600,-22.608074,17.098178
Eyecare Plus Jindalee,https://www.eyecareplus.com.au/jindalee/,+61 7 3376 7660,-27.53559,152.949206
Strathfield Eyecare,http://strathfieldeyecare.com.au/,+61 2 9745 9800,-33.873001,151.094704
Dries Cronje Optometrist,no website,,-19.293814,146.814248
Boyce Optometry,no website,+61 7 5535 5999,-28.088759,153.449646
Brink & de Bruin Optometrists,no website,+27 44 691 2819,-34.182327,22.142699
Comaro View Optometrist,no website,+27 11 432 8367,-26.279279,28.067055
Gateway Optical Centre,www.gatewayoptical.co.za,+27 21 638 3375,-33.969488,18.532573
Graeme Newby Optometrist,no website,+27 21 591 3031,-33.898034,18.553039
M J Kasiram Optometrist,no website, +27 31 209 4095,-29.833477,30.984133
Mellins-i-Style Stellenbosch Eikestad,no website,+27 21 887 4620,-33.933092,18.860478
Sandra Stark Optometrist,https://sandrastark.co.za/sandra-stark-3-rivers/,016 423 7709,-26.656622,27.963229
Spec Savers Govan Mbeki,http://www.specsavers.co.za/store/govan-mbeki, +27 41 585 4733,-33.958432,25.618644
Spec Savers Kloof Street,http://www.specsavers.co.za/store/kloof-street,+27 21 422 5544,-33.931494,18.408432
Spec Savers Nelspruit,http://www.specsavers.co.za/store/nelspruit,+27 13 757 0381,-25.438245,30.966486
University of Adelaide,https://health.adelaide.edu.au/psychology/school-of-psychology,+61 8 8313 5693,-34.920415,138.605389
"Artalejo, Carlos - Innovative Eyecare",https://www.innovativeeyecare.org/,+1 206-508-4700,47.452934,-122.262395
Visique Shattky On Russell Optometrist,https://www.google.co.in/maps/dir/''/Visique+Shattky+On+Russell+Optometrist/data=!4m5!4m4!1m0!1m2!1m1!1s0x6d69ca49cdf5921b:0x67023c45ab5923a8?sa=X&ved=2ahUKEwjxx7mNlNDcAhUIdCsKHVeTAO8Q9RcwC3oECAoQHg,+64 6-876 3777,-39.642672,176.843118
Steve Lyhne Optometrists,http://www.stevelyhneoptom.co.za/,021 712 7570,-34.03968,18.452104
Paterson Burn Optometrists,https://www.patersonburn.co.nz/,07 839 3072,-37.785364,175.277679
Thompson & Larter Optometrists,http://www.thompsonlarter.com.au/,+61 2 9481 0449,-33.7386,151.071365
Visique Botany,https://visique-botany.co.nz/,+64 9-274 9839,-36.95914,174.902631
Stevenson Sangster & Matthews,https://matthews.co.nz/branches/wellington/,+64 4-472 4010,-41.280587,174.775094
Lawrence Kao Optometric Clinic,no website,(02) 9642 4008,-33.891409,151.082803
University of Auckland,www.liggins.auckland.ac.nz,+64 9 923 6691,-36.861534,174.770783
Diane Tu - Khanh Nguyen Optometrists,no website,(02) 9725 6635,-33.894506,150.938138
Dr Oliver Woo Optometrist,no website,+61 2 9858 3314,-33.792464,151.079312
Occhiali Optometrist ,http://www.occhiali.co.nz/,+64 9-376 3073,-36.841421,174.744209
Paul Moldovanos Optometrists,http://www.paulmoldovanos.co.za/,+27 11 472 7430,-26.146723,27.892013
Narindi Jansen Optometrists,http://narindijansenoptometrists.co.za/,+27 11 907 4385,-26.280331,28.124579
"Page, Mark Arizonas Vision",http://sunglasseseyedoctorsoptometristphoenixaz.com/arizonas-vision-dr-mark-j-page-od/,+1 480-351-4879,33.308519,-111.980753
Nel Optics,http://www.neloptics.co.za,012 998 1855,-25.814622,28.296471
Marianne Otto Optometrist,http://www.marianneotto.co.za/,(011) 827-9769 ,-26.248176,28.179641
Buck & Todd Optometrists,https://bucktodd.com.au/,+61 7 4957 3066,-21.14207,149.186075
Eastwood Eyes Optometrists,http://www.eastwoodeyes.com.au/,02 9804 6965,-33.791944,151.079533
Russell Jones Kelly Optometry,http://rjkoptometry.com.au/,+61 2 6651 1139,-30.281102,153.132592
Nerine Marx Optometrists,www.nerinemarxoptometrists.co.za,+27 12 435 8007,-25.772333,28.248
VDM Optometrists,www.vdmoptom.co.za,+27 21 914 1521,-33.847739,18.633812
Francois Jordaan Optometrist ,no website,+27 41 922 0760,-33.76193,25.397861
Lizelle Loock Optometrist,no website,+27 21 870 1863,-33.7042,18.962043
Lonehill Optometrists,http://www.lonehilloptometrist.com/,+27 11 705 3124,-26.013926,28.024766
Slabber & Slabbert,no website,+27 44 279 1636,-33.588203,22.204154
The Pinhole Effect by G&M Eyecare,https://www.thepinholeeffect.com.au/,+61 8 8232 9604,-34.917983,138.605262
Tobich Optical Windhoek,no website,+264 61 223 394,-22.566078,17.080829
"Eye Care Associates of Princeton - Rajeev, Harin",https://www.icareassociates.com/,+1 609-520-1008,40.314707,-74.661623
Abernethy Owens,http://www.abernethyowens.com.au/,"9335 5866 , 6109 2300",-32.051302,115.750016
Insight Optometrist,no website,(042) 288-0065,-33.950985,24.300023
Adelaide Eye Care,https://www.adelaideeyecare.com.au/,08 8373 2200,-34.972964,138.591568
Midwest Optical,no website,(08) 9921 3445,-28.774486,114.612061
North Terrace Optometrists,no website,(08) 8223 2713,-34.921392,138.60467
Eyecare Eyewear Dalby,http://www.ecew.com.au/,+61 7 4669 7072,-27.181239,151.266757
LensPro Helensvale ,http://www.lenspro.com.au/,+61 7 5556 0500,-27.927972,153.336304
Mortimer Hirst,http://www.mortimerhirst.co.nz/,+64 9 379 8950,-36.846828,174.76693
Total Eyecare Lower Hutt,http://www.totaleyecare.co.nz/,+64 4-566 3940,-41.209561,174.901839
Vision Potential,http://www.optometristbrownsplains.com.au/,+61 7 3800 1988,-27.662406,153.048948
Visique Naylor Palmer Ltd,https://www.naylorpalmer.co.nz/,06 358 8781,-40.351155,175.618714
In2Eyes,https://www.in2eyes.com.au/,+61 3 9836 6883,-37.813372,145.090753
Trevor Williams Optometrist,http://www.trevorwilliamsoptometry.com.au/,+61 7 3397 4636,-27.493105,153.061222
Grace and Vision Optometrist,http://www.graceandvision.com.au/,+61 7 3345 3383,-27.598436,153.076666
Vision Camberwell Optometrists,http://www.visioncamberwell.com.au/,+61 3 9882 5666,-37.824408,145.058961
Focus on Laurimar,https://www.focusonlaurimar.com.au/,+61 3 9717 6111,-37.586749,145.127604
Stan Isaacs - Demo,http://isaacs-optom.com/ortho_what.html,6737 1834,1.303457,103.823699
Anstice & Associates Optometrists,https://www.anstice.co.nz/,+64 3-343 3909,-43.529917,172.587899
InVision Eye Health,http://www.invisioneye.com/,+1 801-495-2020,40.554296,-111.872572
OpticsstudiO,no website,+61 2 9884 9929,-33.795904,151.184931
I-Care Optometrists CC,no website,+264 61 377 809,-22.56758,17.084242
Somerville Merrin Neilson Optometrists,http://www.smnoptometrists.com.au/,+61 7 4635 7340,-27.59345,151.951831
"Truong, James Dr. Eye Care Optometry",no website,+1 714-418-9607,33.716811,-117.93507
Nettmann Optometrists,no website,+27 11 435 1194,-26.268356,28.055616
Custom Craft,http://www.customcraftlens.com,800-232-3937,36.204855,-115.254041
Darran Yeow (Swan Street Eye Centre),http://swanstreetoptometrist.com.au/,+61 3 9428 0402,-37.825191,144.997229
Danneberg Rondebosch,http://danneberg.co.za/,+27 21 685 3726,-33.961504,18.469968
Visique Greerton Optometrists,https://www.visiquegreerton.co.nz/,+64 7-577 0113,-37.727178,176.13803
Blubird Optical,http://www.blubirdoptical.co.za/,+27 11 887 7174,-26.124667,28.064272
Frederik Jansen Optometrist,http://www.jansenoptometrist.co.za/optom/,+27 21 553 2153,33.732074,18.449341
The EyeMakers Moringside,http://www.theeyemakers.co.za/,+27 11 783 0095,-26.089486,28.073815
Optik Eyecare Pukekohe,http://www.optik.co.nz/,+64 9-238 3796,-37.198405,174.905175
University of Michigan - Kellogg Eye Center,https://www.umkelloggeye.org/,+1 248-305-4400,42.422136,-83.438007
Vision in Focus Stellenbosch,http://www.visioninfocus.co.za/,+27 21 887 0015,-33.939217,18.857202
Hannes Zwarts Optometrists,http://www.lzoptometrists.co.za/,+27 17 811 2363,-26.525689,29.987298
Charl F van Rooyen Optometrist,no website,0147174526,-24.694073,28.413033
Naidoo Optometrist,no website,+27 31 400 8181,-29.92033,30.911907
Eyes@Narangba,no website,(07) 3886 6061,-27.202902,152.95958
"Pang, Albert/ Trinity Eyecare",http://www.trinityeyecare.com/, +1 972-378-0707,33.03378,-96.835496
Children Eye Care Center,http://childreneyecare.com.hk/%E8%81%AF%E7%B5%A1%E6%88%91%E5%80%91/,2404 6618,22.374993,114.114233
Eyesight Hong Kong Optometry Center,http://www.eye.hk/,+852 2153 0008,22.27785,114.182214
Visique Canon Street Optometrist,http://canonstreetoptometrists.co.nz/,+64 3-688 9791,-44.394296,71.250591
"Inclima Eye Care, LLC",www.inclima.net,+1 203-934-5126,41.271643,-72.952616
iDorothy Optic,www.dorothyoptic.com.au,+61 2 9723 0025,-33.894944,150.933815
Abdurazaak Abdol Optometrist,http://www.abdoloptom.co.za/about_us/our_practice.php,+27 41 585 3856,-33.954767,25.61494
Richard Lindsay and Associates ,http://www.lindsayassociates.com.au/,+61 3 9417 6444,-37.809468,144.978787
Oudtshoorn Optometrist,no website,+27 44 279 2668,-33.592172,22.21983
"Day, Joseph",http://emvc.net/,+1 253-770-2732,47.191938,-122.257477
Papakura Eyecare,https://papakuraeyecare.co.nz/,09 298 2898,-37.063375,174.943273
Deleted: EyeSpace Old,http://www.innovativeeyecare.com.au/,+61 8 8231 9341,-34.927164,138.611566
Bartels - Clarence,https://www.topnpi.com/ny1447223722/dr-david-bartels/ny-1,(716) 668 2020 ,42.965751,-78.674433
Adelaide Eye Care Mawson Lakes,https://www.adelaideeyecare.com.au/,08 8359 1993,-34.810522,138.616686
Tanya Seeber Optometrist,no website,+27 21 790 7490,-34.042728,18.358494
John Mountford Optometrists,http://www.johnmountfordoptometrist.com.au/,+61 7 3221 2643,-27.469406,153.025733
Harmony Vision Care,http://www.harmonyvisioncare.com.au/,+61 7 5520 5900,-28.085441,153.423746
City Contact Lens Clinic P/L,no website,(08) 9325 3565,-31.953574,115.863046
Boneham Optometrist,http://www.bonehamoptom.com.au/,+61 2 9264 6784,-33.869715,151.20735
Wodonga Plaza Vision,http://www.wodongaplazavision.com.au,(02) 6056 2699,-36.120774,146.882285
Stewart Caithness Gray Optometrists,http://www.scgeyes.health.nz/,+64 3-477 3440,-45.869013,170.506528
Rowville Eyecare,http://www.rowville-eyecare.com.au/,+61 3 9753 4116,-37.917316,145.237724
"Ross, Cronje & Deysel Oogkundiges",no website,+27 18 462 7774,-26.86464,26.668488
Eyetech Optometrists,http://www.eyetech.net.au/,+61 3 9349 3919,-37.800685,144.967281
Dynamic Eyes Keywest,http://www.keywest.co.za/store/dynamic-eyes-optometrist/37255,+27 11 273 0107,-26.088293,27.780501
Execuspecs Kolonnade Retail Park,http://www.execuspecs.co.za/store/execuspecs-kolonnade,+27 12 548 7206,-25.680899,28.250819
Freeman Optometrist,http://www.greeneyewear.com/location/grant-freeman-optometrists/,+27 13 755-3355,-25.474108,30.985577
Spec Savers Highveld Mall,http://www.specsavers.co.za/store/highveld-mall,+27 13 692 4347,-25.889636,29.277359
Mark Nagle Optometrists,no website,+27 12 348 2436,-25.768672,28.290763
Adrian Yssel Optometrists,http://www.adrianyssel.co.za,017 634 7668,-26.507494,29.182436
Dirk Booysen Eyecare Centre,http://www.dirkbooysen.co.za/,(011) 954 1000 / 1020 ,-26.099666,27.796266
Lambinon Optometrists,http://www.lambinonoptometrist.co.za/,+27 12 460 8818,-25.796874,28.234541
Colin van Wyk Optometrists,no website, +27 21 852 0320,-34.076954,18.851006
De Smedt Optometrists,no website,012 332 2057,-25.703299,28.240341
Jan de Winnaar Optom,http://www.jandewinnaar.co.za/,(023) 347 1035,-33.643422,19.449915
Liebenberg Optometrists,no website,+27 21 872 1910,-33.728912,18.964674
Weldon Optical ,no website,044 874 2803 ,-33.961772,22.468783
Steve Trimby Optometrist,http://www.stevetrimby.co.za/,+27 21 851 1191,-34.082987,18.863284
Vision Optometrists,http://www.thevisioncompany.co.za/,+27 11 476 3202,-26.129958,27.974527
Hilliar & Gray Optometrists,http://www.hilliarandgray.co.za/,+27 33 342 9673,-29.59944,30.37773
EyeQ Tygervalley,http://www.eyeq.co.za/stores/tyger-valley,+27 21 914 2133,-33.873419,18.635394
Glenn Optical,http://www.looker.co.za/,+27 41 450 0111,-33.981173,25.569094
Risseeuw & van den Berg Optom,http://www.eyeshop.co.za/,+27 13 692 4162,-25.907396,29.25455
Marlise Bester Optometrist,http://www.marelisebester.co.za/,+27 21 872 3530,-33.731994,18.962982
Mark Lawrence Optometrist,no website,+27 17 712 1446,-26.95076,29.24213
Marlene Stoltz Optometrist,no website,+27 34 212 2030,-28.163183,30.229513
The Oculus,http://theoculus.co.za/, +27 21 421 0023,-33.917476,18.416619
Sightnet Golden Vision Randfontein,http://goldenvision.co.za/randfontein/,+27 11 412 2327,-26.158884,27.691865
IM Optical Dainfern,http://imoptical.co.za/,+27 81 379 2311,-25.99014,28.014078
Eksteen Optometrists,no website,+27 21 686 8641,-33.972818,18.486855
Dr Uli Kunzmann,no website, +27 12 343 8411,-25.747393,28.210626
Patel Optometrist,no website,+27 53 831 1430,-28.742843,24.762781
Mullers Optometrists Cape Town,http://mullers.co.za/, +27 21 461 6254,-33.924877,18.421473
Spec Savers Richards Bay,http://www.specsavers.co.za/store/richards-bay,+27 35 789 8011,-28.749181,32.053841
"White, Brenden",http://www.invisioneye.com/,+1 801-495-2020,40.553782,-111.870875
Classic Vision Optometrist,no website,+27 51 524 0108,-29.116578,26.219275
Sorieta Roos Optometrists ,http://www.sorietaroos.co.za/,+27 11 869 0056,-26.274963,28.10683
Arnold van der Wat & Ass Optom,no website,+27 41 360 1141,-33.942349,25.5107
Sightnet Golden Vision Klerksdorp,no website,0187882397,-26.837344,26.677351
Torga Optical Windhoek,https://www.torgaoptical.co.za/town-square-86,002 646 127 1261/2,-22.552644,17.064283
Rita Frank Optometrists,http://www.ritafrankoptometrists.com.na/,061 222 656,-22.574276,17.079765
Dr Davies Optometrists,https://www.drdavies.co.za/,+27 46 622 6205,-33.30997,26.528806
Colin & Mark Tonkil Optometrists,http://www.tonkil.co.za/,+27 21 939 9141,-33.90215,18.577103
Eye Level Inc,https://www.execuspecs.co.za/store/execuspecs-cradlestone,010-003 6699,-26.060378,27.83771
Jason Stander Optometrists,no website,+27 15 297 7668,-23.892222,29.471163
Danneberg Gardens,no website,+27 21 465 1260,-33.931577,18.41866
Zelda van Coller Optometrist,no website,+27 11 900 2044,-26.327278,28.097982
Bernadette Vieira Optometrists,https://www.greeneyewear.com/location/bernadette-vieira-optometrists-2/?account_visible=login,+27 13 790 1479,-25.497772,31.507299
Spec Savers Midlands Mall Inc,http://www.specsavers.co.za/store/midlands-liberty-mall,+27 33 342 1751,-29.584239,30.388995
Spectacle Warehouse Hillfox,http://www.spectaclewarehouse.co.za/,+27 11 475 0720,-26.138047,27.919071
Spectacle Warehouse Kenilworth,http://www.spectaclewarehouse.co.za/,+27 21 674 4141,-33.984205,18.486702
Spectacle Warehouse Willowbridge,https://spectaclewarehouse.co.za/,+27 21 914 5315,-33.868727,18.631683
Dr B A Staples,no website,+27 58 303 5561,-28.233752,28.319248
Ahmed G M Mayat Optometrists,no website, +27 31 403 6895,-29.909689,30.896142
Bernard Coppez Optometrist,no website,+27 21 439 7251,-33.907899,18.406342
Camarena Porter Optometrist,http://www.spectacleworld.co.za/, +27 21 595 3410,-33.890839,18.554811
Cewa Eyes,no website,+27 17 819 7626,-26.522514,29.987097
Yacob Goga Optometrist,no website,+27 31 201 5501,-29.854995,30.997583
Wouter Burger Optometrist,no website,+27 17 647 3595,-26.45516,29.461995
Wingfield Optical,http://www.dv-goodwood.co.za/,+27 21 595 1422,-33.891292,18.559862
Vision Corner,http://www.visioncorner.co.za/, (012) 991-4675 ,-25.788649,28.328821
Theo Kretzmann Optometrist,no website,+27 43 721 2434,-32.981515,27.901715
Danneberg Bellville,http://www.danneberg.co.za/, +27 21 948 1716,-33.9026,18.629959
Dean Naidoo Optician,no website,+27 21 797 4355,-34.003743,18.472025
Dr A T Ivey Ophthalmologist,no website,+27 21 671 5154,-33.980624,18.468194
Gamsu & Gaffoor Optometrists,no website,+27 21 696 9721,-33.960571,18.503838
Grove Optometrists,http://www.gvision.co.za/,+27 11 972 5316,-26.081931,28.242921
Kevin Phillips Optometrist,http://www.kevinphillipsoptom.co.za/,+27 21 552 4571,-33.862216,18.502494
Lifestyle Optical,http://www.lifestyleoptical.co.za/, +27 31 507 2274,-29.700885,31.004571
M F A Mahomed Optometrist,no website,+27 31 201 9922,-29.852303,30.999208
Mayat & Mayat Optometrists,no website,031 305 3284,-29.857193,31.018691
M R Khan Optometrists ,no website,+27 31 902 4038,-29.986117,30.926515
Mellins-i-Style Palm Grove,no website,+27 21 975 6070,-33.833474,18.647502
Peter Moffatt Optometrists,no website,+27 31 202 2277,-29.854534,30.996932
Meskin Optometrists,http://www.mo-online.co.za/,+27 21 439 4431,-33.918582,18.387692
New Brighton Vision Centre,no website,041 452 3775,-33.759676,25.4144
Newave Optometrist,no website,+264 64 202 904,-22.953616,14.503302
Pierre Le Roux Optometrist,http://www.pierrelerouxoptom.co.za/,+27 41 363 7744,-33.953237,25.577561
Ruhi Pathan Optometrist,no website,+27 31 304 3603,-29.861804,31.017254
"Slabber, Slabbert & Schubert",no website,+27 23 414 3519,-32.354452,22.584813
Spec Eye Care,http://www.specseyecare.co.za/, +27 21 883 3088,-33.934377,18.859649
Spec Savers Blue Route,http://www.specsavers.co.za/store/blue-route,+27 21 712 6725,-34.064648,18.451637
Spec Savers Langeberg,http://www.specsavers.co.za/store/langeberg,+27 44 695 2980,-34.147681,22.104415
Specworths Optometrist ,no website,+27 21 851 1329,-34.08413,18.852741
Spec Savers Mossel Bay,http://www.specsavers.co.za/store/mossel-bay,+27 44 693 2260,-34.182943,22.114814
Genop Instruments ,https://www.genop.co.za/,+27 21 492 1200,-33.927428,18.420951
Bierman Optometrists,http://biermangroup.co.za/,+27 21 988 7487,-33.852913,18.721771
Corne Swart Optometrist,no website,+27 13 737 6048,-25.043647,31.132178
Edleigh Optometrist,http://www.edleigh.co.za/,+27 31 466 4631,-29.910175,31.012685
Eyetelle,http://www.eyetelle.co.za/,+27 84 424 4888,-33.830086,18.506657
GP Pro Pte Ltd,https://www.sgpbusiness.com/company/Gp-Pro-Pte-Ltd,6466 4167,1.322894,103.81372
Andre Opperman Optometrists,http://www.aooptoms.co.za/,+27 23 347 3076,-33.641788,19.446729
Walvisbay Optometrist,no website,+264 64 204 954,-22.959067,14.505676
Martin Grimbly Optometrists,http://www.martingrimblyoptometrist.co.za/,+27 21 981 4579,-33.874974,18.683489
Dr F I Hartog Inc,no website,0219461257,-33.900402,18.611879
"Bosman, Mc Nulty & du Toit",no website,+27 21 976 0059,-33.859038,18.641563
Absolute Eyecare,www.absoluteeyecare.co.za,+27 21 705 0531,-34.04058,18.494799
Benjamin Liss Optometrist Inc,www.benjaminliss.co.za,+27 41 586 3277,-33.963936,25.61093
Bierman Grobbelaar Optometrist,http://www.biermangroup.co.za/,+27 22 719 1164,-32.920736,17.984504
Bierman Volschenk Optom,no website,+27 21 856 3161,-34.14652,18.85731
Z A Khan Optometrist,http://www.zakhanoptom.co.za/,+27 31 462 3033,-29.923532,30.968402
Wagner Optometrists,http://www.wagneroptom.co.za/,+27 21 919 0056,-33.884356,18.648183
Visionmart Optometrists,no website,+27 21 572 1870,-33.563163,18.494158
Visioncare Seychelles,http://www.visioncare.sc/,+248 4 322 792,-4.629114,55.455204
Vicci de Guisti Optometrist,no website,+27 11 9070306,-26.28719,28.104017
Van Wyk & Le Roux Optometrists,no website,+27 23 342 5827,-33.630575,19.435554
Van der Spuy Oogkundiges Ing,no website,+27 21 872 0701,-33.736341,18.959891
Torga Optical Somerset West,http://www.torgaoptical.co.za/,+27 21 851 1702,-34.086489,18.828762
Torga Optical Greenacres,http://torgaoptical.co.za/greenacres-8,+27 41 450 1026,-33.94987,25.579694
Surrey Optometrist,no website,021 6372075,-33.978662,18.542565
Sullivan Optometrist,no website,+27 21 712 2009,-34.049655,18.462236
Colin Rodd Optometrist,http://moonstoneeyewear.com/location/colin-rodd-optometrist/,021 7826313,-34.138049,18.431011
Euan F Glover Optometrist,no website,043 726 8511,-32.992795,27.910672
Dynamic Vision Ceres,no website,+27 23 316 2001,-33.370008,19.308897
EyeQ Canal Walk,http://www.eyeq.co.za/stores/canal-walk,+27 21 551 3415,-33.89261,18.510807
EyeQ Claremont,http://www.eyeq.co.za/stores/cavendish-square,+27 21 683 4546,-33.980127,18.463439
Jina Optometrist,no website,+27 11 421 2171,-26.209608,28.302857
KA Kasoojee Optometrist,no website,+27 31 502 1990,-29.724429,31.03859
Kevern Pappin Optometrists,http://www.dynamicvisionsa.co.za/,+27 21 911 1005,-33.873611,18.578212
Longbeach Eye Studio,http://www.eyestudio.co.za/,+27 21 785 1886,-34.1239,18.388462
M F A Mahomed t/a RR Optical,no website,+27 31 201 9922,-29.851865,30.999604
Mellins-i-Style Bethlehem,http://www.mellins.co.za/,+27 58 303 4591,-28.243946,28.325671
Mellins-i-Style en Vennote Table View,http://www.mellins.co.za/,+27 21 557 3931,-33.822107,18.488736
Middelburg Oogkundiges,no website,013 244 1778,-25.805276,29.460222
N Pillay Optometrist,no website,+27 31 706 1279,-29.870705,30.805339
Niek Harteveld Oogkundige,no website,+27 44 695 1688,-34.150709,22.101936
Philip Obermeyer Optometrist Grabouw,http://www.oberoptom.co.za/,+27 21 859 5196,-34.160172,19.008178
Nu Vision Oogkundiges Inc,http://www.nuvisionwell.co.za/,+27 21 864 2990,-33.650524,19.002114
Nusight Optometrist,no website,+27 21 939 4006,-33.90718,18.584424
Spectacle Select,https://vangatemall.co.za/store/spectacle-select/58339,+27 21 638 1014,-33.96177,18.537907
Pieter von Abo Oogkundige,no website,+27 12 327 2297,-25.747669,28.147724
Potgieter Oogkundige,no website,+27 56 213 2464,-27.665245,27.235299
Riana Zinn Optometrist,http://www.rianazinn.co.za/,+27 21 870 1863,-33.703848,18.961439
R. Nettl Optometrist,http://fb.com/R.NettlOptometrist,+27 41 365 1260,-33.947331,25.566365
S A Y Motala Optometrist,http://eyedocmotala.co.za/,+27 15 291 1709,-23.909451,29.45206
S Paruk Optometrist,no website,+27 31 702 0103,-29.813509,30.854826
Spec Savers Carnival Mall,https://www.specsavers.co.za/store/carnival-mall,+27 11 915 7023,-26.251595,28.318165
Spec Savers Kenilworth,http://www.specsavers.co.za/store/kenilworth,+27 21 671 2513,-33.988714,18.484689
Spec Savers Korsten,http://www.specsavers.co.za/store/korsten,+27 41 453 6900,-33.934896,25.583538
Spec Savers Kraaifontein,http://www.specsavers.co.za/store/medicross-kraaifontein, +27 21 987 4796,-33.839726,18.704404
Spec Savers Merebank,http://www.specsavers.co.za/store/merebank,+27 31 461 2323,-29.952333,30.969333
Stephenson & Hodgkinson Optom,no website,+27 21 782 6092,-34.137635,18.430326
Spec Savers Secunda,https://www.specsavers.co.za/store/secunda-square,+27 17 634 5361,-26.507221,29.182027
Spec Savers Plettenberg Bay,http://www.specsavers.co.za/store/plettenberg-bay,+27 44 533 3350,-34.042737,23.369292
Spec Savers Parow Centre,http://www.specsavers.co.za/store/parow-centre,+27 21 911 5414,-33.905677,18.598682
Bierman Janeke Oogkundiges,http://www.biermangroup.co.za/, +27 23 626 3803,-33.805348,19.877043
Eyeconic Optometry,http://www.eyeconicoptometry.com.au/,+61 7 5532 7398,-27.980017,153.410007
Allan Wise Optometrist,http://www.wiseopt.co.za/contact_us.php,021 702 4856,-34.07937,18.437701
Bergman & Adam Optometrist,no website,+27 48 881 3245,-32.152942,25.617647
Boston Optique,www.bostonoptique.co.za,+27 21 945 1966,-33.900417,18.612715
Brian Roos Opticians,www.brianroosoptician.co.za,+27 21 761 5586,-34.004021,18.468253
Brisley Oogkundiges,no website,+27 16 973 2626,-26.818753,27.826021
C Naidoo Optometrist,no website,+27 33 397 9220,-29.558779,30.409824
Wynberg Optometrist,www.optometrist.capetown,+27 21 797 9193,-34.006407,18.469407
Wayne Hodgkinson Optometrist,no website,+27 21 701 3577,-34.07284,18.431842
Vision Works Optometrist Cape Road,https://www.vision-works.co.za/pages/store-locator,+27 41 363 0516,-33.94949,25.569442
Torga Optical Promenade,www.torgaoptical.co.za,+27 21 376 4865,-34.038605,18.615937
Dirk Kotze Optometrist,no website,+27 44 874 1602,-33.961808,22.458028
Dr A M Du Toit,no website,+27 21 949 3044,-33.900706,18.611657
E Reyneke Optometrist,no website,+27 23 312 3060,-33.366073,19.315634
Dr Ellen Ancker,no website,+27 21 426 2200,-33.928407,18.4127
Dr M P Mesham,https://www.eyelasercapetown.co.za/,+27 21 794 5714,-34.020061,18.442649
DR R P Scholtz,no website,+27 21 671 5154,-33.980722,18.468205
Frikkie Swanepoel Optometrist,no website,+27 15 291 4171,-23.909,29.465111
Gys van Niekerk Optometrist,no website,+27 12 664 0089,-25.830132,28.204013
Joubert Oogkundiges,www.joubertoptom.co.za,+27 28 713 3800,-33.521989,21.295999
M D Amra Optometrist,no website,(03) 2533 2353,-29.642385,31.047231
M Potgieter Optometrist,no website,+27 44 877 0708,-33.993445,22.5747
Mellins-i-Style The Grove,http://www.mellins.co.za/,(010) 100 3310,-29.111631,26.213383
Mullers Tygervalley,www.mullers.co.za,+27 21 914 1720,-33.873352,18.635066
Optical Connection,no website,+27 11 854 8219,-26.322158,27.844094
Optiker Rohloff CC,no website,064 402 091,-22.662246,14.533168
Pieterse Oogkunidges,http://www.pieterseoptom.co.za/,+27 10 100 3824,-26.096956,27.801377
Provision Optometrists,http://www.provision.co.za/,+27 56 811 5361,-26.900886,27.458464
R Wallace T/A Biddle Optom,no website,+27 41 365 5637,-33.948564,25.556957
Spec Savers Durbanville,http://www.specsavers.co.za/store/durbanville,+27 21 976 3117,-33.832313,18.646321
Spec Savers Garden Route Mall,http://www.specsavers.co.za/store/garden-route-mall,+27 44 887 0066,-33.985813,22.503311
Spec Savers Kolonnade,https://www.specsavers.co.za/store/kolonnade, +27 12 548 1310,-25.681153,28.250905
Springbok Oogkundiges Inc,no website,+27 27 718 1005,-29.667827,17.88271
Stellenbosch Optometrist,http://www.eye-clinic.co.za/,+27(21) 8838091,-33.932463,18.859144
Sport-in-Sight Optometrist,www.sport-in-sight.co.za,+27 53 861 2346,-28.748553,24.741248
Spijkerman & Van Wyk Optometrists,http://www.spijkerman.co.za/,+27 21 887 0041,-33.944527,18.85169
Spec Savers Upington,http://www.specsavers.co.za/store/upington,+27 54 332 4398,-28.453942,21.246478
J A Kruger Inc,http://www.eyelaserclinic.co.za/about-us/dr-kruger,+27 21 910 0300,-33.878504,18.636297
"Woo, Paul - 1234 Ortho K Vision Care",http://1234orthok.com/dr-paul-t-woo-od/4216074,+1 626-282-5388,34.080303,-118.122349
Mafikeng Optometrist,no website,+27 18 381 5670,-25.864291,25.646793
Opti Representaciones,no website,+52 55 5512 9707,19.406431,-99.167309
Execuspecs Riverside,http://www.execuspecs.co.za/store/execuspecs-riverside,+27 16 932 2147,-26.734028,27.837905
Buchanan Optometrists,https://matthews.co.nz/branches/christchurch/,+64 3-341 4850,-43.531434,172.572289
Buchanan & Matthews Optometrists,http://matthews.co.nz/branches/christchurch/,+64 3-341 4850,-43.531253,172.571816
Matthews Eyecare Nelson,http://www.matthews.co.nz/,+64 3-548 3249,-41.273787,173.286483
Broward Eye Care,browardeye.com,+1 954-564-2020,26.16706,-80.114919
Eyes in Design,www.smartvisionoptometry.com.au/,02 9969 1600,-33.828474,151.244264
Gulf & Ranges Optometrists,http://www.gulfandranges.com.au/,+61 8 8642 2766,-32.492863,137.760795
Les Ruttenberg - Optometrist ,http://optometristdirectory.co.za/les-ruttenberg-optometrist/,+27 11 886 4665,-26.095708,27.998591
Sinclair Sloan Incorporated,www.sloaneoptom.net,+27 21 851 1860,-34.082477,18.849996
Eyes In Design Bondi,http://www.smartvisionoptometry.com.au/,+61 2 9365 5047,-33.885419,151.272272
Tomlinson Optometrists - Kenilworth,no website,+27 21 797 7291,-33.994998,18.468784
FKZ Optometrists,http://www.fkzoptometrists.co.za/,+27 12 343 2431,-25.748939,28.20067
Stef & Fanie Kriel Optometrists,http://www.krieloptometrists.co.za/,+27 43 722 9617,-32.998634,27.900275
Eyecandy Optometrists,http://eyecandyoptometrists.co.za/,+27 11 325 4434,-26.125267,28.033315
Neovision Optometrists - Durbanville,www.neovision.co.za,+27 21 976 5122,-33.844029,18.677475
Neovision Hermanus Optometrist,http://www.neovision.co.za/,+27 28 312 2383,-34.412278,19.250148
Caroline Berry Optometrists,no website, +27 21 785 2163,-34.125683,18.391898
Witbank Optometrist,www.witbankoptometrists.co.za,+27 13 656 1150,-25.867877,29.230094
Eugene K Botha Optometrist,http://www.ekboptom.co.za/,+27 11 475 8448,-26.129658,27.907176
Eyelink Mitchell's Plain,www.eyelinkoptom.co.za,+27 21 392 6114,-34.049573,18.619986
Nugent & Jooste Optometrist,www.nugentandjooste.com,+27 54 331 2432,-28.458058,21.245354
Mellins-i-Style George,http://www.mellins.co.za/,+27 44 874 2374,-33.957539,22.456408
Maartens Oogkundiges,no website,+27 27 213 1529,-31.665017,18.508806
N Khan Optometrist,no website,+27 21 633 2715,-33.987816,18.522616
Roos & du Toit Optometrists,no website,+27 51 447 3344,-29.109842,26.207209
Eyesense Optometrists Mt Annan,www.eyesense.com.au,+61 2 4648 2881,-34.048165,150.758669
Taipei Eye Clinic,http://www.taipeieyeclinic.com.tw/,+886 2 2546 2219,25.059145,121.545749
Grant Carelse Optometrist,www.grantcarelseoptometrist.co.za,+27 42 295 2515,-34.027172,24.770754
Labuschagne & Alberts Oogkundiges Ingelyf,no website,+27 18 468 8903,-26.833031,26.675328
Dave Skinner Optometrists,no website,+27 41 585 1918,-33.964442,25.610028
"University of Johannesburg, Optometry Dept",https://www.uj.ac.za/faculties/health/Optometry/Pages/Contact-Us.aspx,+27 11 559 6074,-26.193718,28.054353
Ferndale Optometrists,www.omgwtf.com,+27 11 781 6736,-26.081888,27.99868
Retief's Optometrist,http://www.retiefsoptom.co.za/patient_forms.php,+27 13 282 7199,-25.77473,29.479354
Spectacle Warehouse Atterbury,http://www.spectaclewarehouse.co.za/,+27 12 991 4911,-25.786402,28.305318
B Rama Optometrist,no website,+27 31 500 4222,-29.70396,31.003334
IC Optical Kroonstad,http://www.imoptical.co.za/,+27 78 149 4308,-27.665262,27.233374
Toowong Optometrists,http://www.toowongopt.com.au/,+61 7 3870 0565,-27.485823,152.991109
Foresto EyeQ Optometrists,http://www.eyeq.com.au/optometrists/spring-hill/,+61 7 3831 2900,-27.46375,153.025005
Eyre Eye Centre,http://www.eyreeyecentre.com.au/,+61 8 8682 4566,-34.722514,135.857191
Cherry de Beer Optometrist,http://www.cherrydebeer.co.za/strand.php,+27 21 853 5661,-34.107756,18.841496
Volksrust Oogkundiges,no website,+27 17 735 5279,-27.36889,29.882341
Minion Viljoen Optometrist,http://burgundymedicalcentre.co.za/,0215585096,-33.84144,18.544484
SafeSight,http://safesighteyelaser.com/,+27 11 346 5025,-26.134131,28.069841
Robert Hall Optometrist,https://roberthalloptometrists.business.site/,+27(0)21 689 2938,-33.971052,18.464098
Stellenbosch Square Optometrist,http://www.andrewelgemoed.co.za/,+27 21 880 2000,-33.977155,18.842107
Stal Plein Optical Centre,www.healthfinder.health24.com,+27 21 461 2750,-33.925008,18.422069
De Jongh Optometry,http://www.dejonghoptometry.co.za/,+27 12 998 7592,-25.809513,28.296058
Van der Merwe Oogkundiges,no website,028 5141080,-34.148071,19.914161
Mellins-i-Style Claremont,http://www.mellins.co.za/,+27 21 674 3166,-33.977508,18.465738
D Mnisi Optometrist,no website,(021) 868-2467,-33.674697,18.991889
Bierman du Plessis Inc,www.biermangroup.co.za,+27 21 975 4775,-33.830432,18.648015
"Vision Center,LP,  Dr. Berke",http://www.supervisioncenter.com/,+1 714-979-2021,33.702926,-117.919639
Ocula Wanaka,http://www.ocula.co.nz/,+64 3-443 5103,-44.693467,169.136715
Lincoln Vision Center,www.lincolnvisioncenter.com,+1 402-466-0165,40.819742,-96.63145
Eyewear Central,www.eyewearcentral.com.au,+61 2 4722 3658,-33.751064,150.693291
Ocula Queenstown,www.ocula.co.nz,+64 3-441 4318,-45.030905,168.661558
Ning Kwong Optical Co Pte Ltd,http://www.ningkwong.com.sg/,+65 6533 0777,1.287121,103.842268
Bay Eye Care,http://www.bayeyecare.co.nz/,+64 7-571 6644,-37.697266,176.158337
Pasteur Optometrists,www.pasteuroptom.co.za,+27 51 522 2924,-29.134102,26.194085
Paul Harvey Optometry,http://www.harveyoptometry.com.au/,+61 2 6766 5944,-31.091183,150.93004
"Quan, Chester, OD",http://www.visionarium-sf.com/,+1 415-753-5338,37.733125,-122.49221
Visique Total Vision,www.totalvision.co.nz,+64 7-856 2611,-37.791695,175.292673
"Aversa, James",http://www.heightseyecenter.net/,+1 201-288-1109,40.862481,-74.078392
Innovative Contacts Australia,http://innovativecontacts.com.au/,(08) 8231 9341,-34.926947,138.612685
Innovative Contacts South Africa,http://www.innocon.co.za/,+27 21 975 9350,-33.831586,18.645535
Visique Rose Optometrists,http://www.roseoptom.co.nz/,+64 7-847 3195,-37.786293,175.265839
Innovative Eye Care,http://innovativeeyecare.com.au/,+61 8 8231 9341,-34.927036,138.612606
Charl Laas Optometrists,http://www.charllaas.com/,+27 21 976 8046,-33.831555,18.644854
Bridgman Eyecare,https://www.bridgmaneyecare.nz/,+64 3-477 9085,-45.870259,170.506821
Mullers Optometrists Claremont,www.mullers.co.za,+27 21 671 5096,-33.979965,18.463123
Corneal Lens Corporation,http://corneal-lens.co.nz/,+64 3-366 6247,-43.551584,172.567246
"Barnett, Melissa ",www.ucdmc.ucdavis.edu, +1 (916) 734-4641,38.572692,-121.418228
Blink Eyecare & Eyewear,http://www.blinkcharlotte.com/, +1 704-817-3800,35.027596,-80.840952
"Colbourne, Paul",http://www.aievision.com/bristow-office,(703) 392-1010 ,38.734384,-77.55133
"Barnhart, Melissa",https://franklinparkvision.com/,(509) 487-0600 ,47.707801,-117.41063
"Berry, Steven",http://www.abqvisioncare.com/,+1 505-332-2020,35.141547,-106.552326
Buena Vista Optometry ,https://www.buenavistaoptometry.com/,+1 805-642-2574,34.256107,-119.220546
Vikash Srikewal Optometrist,http://vikash-srikewal-optometrist.business.site/,+27 33 342 4256,-29.601113,30.386248
W Meyer Optometrist Pty Ltd,http://www.meyeroptometrist.com/,+264-061-223133,-22.581174,17.091005
Clearview Family Eyecare,www.cfememphis.com,+1 901-821-8337,35.114544,-89.906045
John Mc Minn Optometrists,www.johnmcminnoptometrists.co.zw,+263 4 303 969,-17.803083,31.037498
EyeQ Optometrists Ramsgate,http://www.eyeq.com.au/optometrists/ramsgate/,+61 2 9529 4811,-33.985163,151.144053
Vision West,http://www.visionwest.com.au/About-Us,+61 8 9445 1499,-31.87529,115.776321
HPJ Bruwer Optometrists,http://www.elite-optical.co.za/,+27 83 358 6665,-25.770032,28.249682
Cilliers Optometrists,http://coptom.co.za/,+27 34 981 6172,-27.765319,30.791928
O'Fallon Family Eyecare,http://ofallonfamilyeyecare.com/,+1 636-614-4655,38.725599,-90.697838
Eyecare Concepts,https://www.eyecareconcepts.com.au/,+61 3 9819 7695,-37.796328,145.055355
Eyetek Optometrists - Weltevreden Park,http://www.eyetek.co.za/,+27 11 475 2830,-26.13658,27.917714
Angela,https://www.angelamorris.com.au,+61 2 6332 5222,-33.413417,149.578601
"Auburn Optical Matthew Martin, OD",http://www.auburnoptical.com/,+1 989-662-2501,43.602809,-84.088201
"Lathi Tha Eyecare - York Road, Mthatha",http://lathitha.co.za/,+27 47 532 6664,-31.588811,28.789311
Family Eyecare Center - Dr. Jeff Handschumacher,http://www.familyeyecarecenternc.com/,+1 919-981-4444,35.876016,-78.538187
